{
    "3evils": "3evils",
    "acm": "asiancinema",
    "ant": "anthelion",
    "ath": "aither",
    "bhd": "beyond-hd",
    "bhdtv": "bit-hdtv",
    "blu": "blutopia",
    "dt": "desitorrents",
    "fnp": "fearnopeer",
    "gpw": "greatposterwall",
    "lst": "lst",
    "nxt": "nextdemo",
    "nbl": "nebulance",
    "ntelogo": "ntelogo",
    "oe": "onlyencodes",
    "otw": "oldtoonsworld",
    "ptp": "passthepopcorn",
    "r4e": "racing4everyone",
    "rf": "reelflix",
    "rtx": "retroflix",
    "shri": "shareisland",    
    "spd": "speedapp",
    "stc": "skipthecommericals",
    "stt": "skipthetrailers",
    "szn": "swarmazon",
    "tdb": "torrentdb",
    "tdc": "thedarkcommunity",
    "telly": "telly",
    "tl": "torrentleech",
    "tsp": "thesceneplace",
    "ulcx": "uploadcx"
}
